<?xml version="1.0" encoding="UTF-8" standalone="no"?>
<!-- Created with Inkscape (http://www.inkscape.org/) -->

<svg
   xmlns:dc="http://purl.org/dc/elements/1.1/"
   xmlns:cc="http://creativecommons.org/ns#"
   xmlns:rdf="http://www.w3.org/1999/02/22-rdf-syntax-ns#"
   xmlns:svg="http://www.w3.org/2000/svg"
   xmlns="http://www.w3.org/2000/svg"
   xmlns:sodipodi="http://sodipodi.sourceforge.net/DTD/sodipodi-0.dtd"
   xmlns:inkscape="http://www.inkscape.org/namespaces/inkscape"
   width="928.47827"
   height="484.7132"
   id="svg2"
   sodipodi:version="0.32"
   inkscape:version="0.48.2 r9819"
   version="1.0"
   sodipodi:docname="klsgfx_BigPlane_2.svg"
   inkscape:output_extension="org.inkscape.output.svg.inkscape"
   inkscape:export-filename="C:\Dokumente und Einstellungen\Klaus\Eigene Dateien\Eigene Bilder\OpenClipartLibrary\BigPlane_outline.png"
   inkscape:export-xdpi="28.2328"
   inkscape:export-ydpi="28.2328">
  <defs
     id="defs4" />
  <sodipodi:namedview
     id="base"
     pagecolor="#ffffff"
     bordercolor="#666666"
     borderopacity="1.0"
     inkscape:pageopacity="0.0"
     inkscape:pageshadow="2"
     inkscape:zoom="0.79130605"
     inkscape:cx="460.87546"
     inkscape:cy="206.13851"
     inkscape:document-units="px"
     inkscape:current-layer="layer1"
     width="1052.3622px"
     height="744.09449px"
     inkscape:window-width="1362"
     inkscape:window-height="729"
     inkscape:window-x="0"
     inkscape:window-y="18"
     inkscape:object-points="true"
     inkscape:object-nodes="true"
     showguides="true"
     inkscape:guide-bbox="true"
     objecttolerance="21"
     showgrid="false"
     fit-margin-top="0"
     fit-margin-left="0"
     fit-margin-right="0"
     fit-margin-bottom="0"
     inkscape:window-maximized="0" />
  <metadata
     id="metadata7">
    <rdf:RDF>
      <cc:Work
         rdf:about="">
        <dc:format>image/svg+xml</dc:format>
        <dc:type
           rdf:resource="http://purl.org/dc/dcmitype/StillImage" />
        <dc:title></dc:title>
        <dc:date>20070107</dc:date>
        <dc:creator>
          <cc:Agent>
            <dc:title>Klaus Kellner</dc:title>
          </cc:Agent>
        </dc:creator>
        <dc:rights>
          <cc:Agent>
            <dc:title>Klaus Kellner</dc:title>
          </cc:Agent>
        </dc:rights>
        <dc:publisher>
          <cc:Agent>
            <dc:title>Klaus Kellner</dc:title>
          </cc:Agent>
        </dc:publisher>
        <dc:subject>
          <rdf:Bag>
            <rdf:li>Plane</rdf:li>
            <rdf:li>Clipart</rdf:li>
            <rdf:li>Outline</rdf:li>
          </rdf:Bag>
        </dc:subject>
        <cc:license
           rdf:resource="http://web.resource.org/cc/PublicDomain" />
      </cc:Work>
      <cc:License
         rdf:about="http://web.resource.org/cc/PublicDomain">
        <cc:permits
           rdf:resource="http://web.resource.org/cc/Reproduction" />
        <cc:permits
           rdf:resource="http://web.resource.org/cc/Distribution" />
        <cc:permits
           rdf:resource="http://web.resource.org/cc/DerivativeWorks" />
      </cc:License>
    </rdf:RDF>
  </metadata>
  <g
     inkscape:label="Ebene 1"
     inkscape:groupmode="layer"
     id="layer1"
     transform="translate(-64.678933,-105.03523)">
    <g
       id="g6308"
       transform="matrix(1.2162398,0.3348702,-0.3348702,1.2162398,-35.930274,-221.14259)"
       inkscape:export-filename="C:\Dokumente und Einstellungen\Klaus\Eigene Dateien\Eigene Bilder\OpebClipartLibrary\BigPlane.png"
       inkscape:export-xdpi="28.273674"
       inkscape:export-ydpi="28.273674"
       style="fill:#ffffff;fill-opacity:1">
      <g
         id="g6209"
         style="fill:#ffffff;fill-opacity:1">
        <g
           id="g7363"
           transform="matrix(0.995201,0.09785244,-0.09785244,0.995201,80.405097,-6.3185432)"
           style="fill:#ffffff;fill-opacity:1">
          <path
             style="fill:#ffffff;fill-opacity:1;stroke:#000000;stroke-width:15;stroke-linecap:round;stroke-linejoin:round;stroke-miterlimit:4;stroke-opacity:1;stroke-dasharray:none"
             d="m 569.65625,69.9375 c -23.53877,0.01888 -44.86861,0.922928 -60,3 3.4106,15.916206 46.23542,23.773834 94.65625,24.65625 -9.47847,20.07452 -17.43656,48.17484 -18.625,72.625 -18.45712,0.33352 -40.42412,1.96875 -64.46875,1.96875 -63.16266,0 -116.96546,36.80618 -135,87.59375 -107.59477,8.98898 -246.77316,39.32194 -259.65625,47.25 2.89183,10.84434 76.82358,11.68645 153.25,6.59375 -5.48425,3.45607 -9.79783,8.18128 -12.875,13.65625 -4.4538,6.83425 -7.09375,15.33347 -7.09375,24.53125 0,22.5755 15.90499,40.90625 35.5,40.90625 8.14,0 15.63456,-3.1537 21.625,-8.46875 19.42785,-9.9649 33.71876,-44.06336 33.71875,-61.5625 -0.15927,-7.65564 -3.50596,-12.08242 -8.59375,-14.53125 13.32977,-1.47734 26.07409,-3.13067 37.875,-4.90625 3.3837,65.90391 61.44475,113.1957 140.15625,105.75 42.19823,-3.93156 74.75651,-51.67088 95.6875,-101.5 22.07669,2.85362 45.60198,5.15354 69.34375,7 -4.34703,3.24424 -7.85562,7.36362 -10.46875,12 -0.0207,0.0317 -0.0419,0.062 -0.0625,0.0937 -0.0639,0.11414 -0.12465,0.22898 -0.1875,0.34375 -4.30447,6.76733 -6.87501,15.09829 -6.875,24.125 0,22.5755 15.905,40.90624 35.5,40.90625 8.13439,0 15.63661,-3.16032 21.625,-8.46875 19.42969,-9.96252 33.71874,-44.03104 33.71875,-61.53125 -0.0236,-1.13204 -0.12273,-2.19232 -0.28125,-3.1875 72.87973,2.95366 134.64061,1.68165 144.375,-1.96875 -1.06169,-18.0485 -168.69204,-47.406 -270.875,-54.21875 7.59598,-26.27575 11.42845,-49.29111 11.09375,-61.8125 -0.45765,-16.8249 -9.03518,-24.75313 -23.5625,-28.21875 4.17534,-16.98419 9.0571,-51.18643 9.90625,-75.09375 37.52499,-1.097912 75.01012,-6.126907 97.65625,-14.65625 -22.33295,-7.131561 -96.90787,-12.923249 -157.0625,-12.875 z"
             id="path6231"
             inkscape:connector-curvature="0" />
          <path
             style="fill:#ffffff;fill-opacity:1;stroke:#000000;stroke-width:4;stroke-linecap:round;stroke-linejoin:round;stroke-miterlimit:4;stroke-opacity:1;stroke-dasharray:none"
             d="m 758.41936,321.95636 c 0,20.63873 -19.89893,64.34734 -44.63172,64.34734 -24.73281,0 -44.80579,-16.75029 -44.80579,-37.38902 0,-20.63875 13.15755,-40.56038 37.84498,-41.98998 18.13361,-1.0501 51.08494,-9.36663 51.59253,15.03166 z"
             id="path6197"
             sodipodi:nodetypes="csssc"
             inkscape:connector-curvature="0" />
          <path
             transform="matrix(1.4563375,0,0,1.5819761,319.037,165.99072)"
             d="m 288.06798,116.99267 c 0,14.2778 -10.91306,25.85225 -24.37499,25.85225 -13.46193,0 -24.37498,-11.57445 -24.37498,-25.85225 0,-14.27781 10.91305,-25.852257 24.37498,-25.852257 13.46193,0 24.37499,11.574447 24.37499,25.852257 z"
             sodipodi:ry="25.852255"
             sodipodi:rx="24.374983"
             sodipodi:cy="116.99267"
             sodipodi:cx="263.69299"
             id="path6199"
             style="fill:#ffffff;fill-opacity:1;stroke:#000000;stroke-width:2.63529372;stroke-linecap:round;stroke-linejoin:round;stroke-miterlimit:4;stroke-opacity:1;stroke-dasharray:none"
             sodipodi:type="arc" />
          <path
             sodipodi:type="arc"
             style="fill:#ffffff;fill-opacity:1;stroke:#000000;stroke-width:3.74883533;stroke-linecap:round;stroke-linejoin:round;stroke-miterlimit:4;stroke-opacity:1;stroke-dasharray:none"
             id="path6201"
             sodipodi:cx="263.69299"
             sodipodi:cy="116.99267"
             sodipodi:rx="24.374983"
             sodipodi:ry="25.852255"
             d="m 288.06798,116.99267 c 0,14.2778 -10.91306,25.85225 -24.37499,25.85225 -13.46193,0 -24.37498,-11.57445 -24.37498,-25.85225 0,-14.27781 10.91305,-25.852257 24.37498,-25.852257 13.46193,0 24.37499,11.574447 24.37499,25.852257 z"
             transform="matrix(0.9942038,0,0,1.1451222,437.45369,220.99527)" />
          <path
             transform="matrix(0.4331782,0,0,0.4621222,586.73085,299.112)"
             d="m 288.06798,116.99267 c 0,14.2778 -10.91306,25.85225 -24.37499,25.85225 -13.46193,0 -24.37498,-11.57445 -24.37498,-25.85225 0,-14.27781 10.91305,-25.852257 24.37498,-25.852257 13.46193,0 24.37499,11.574447 24.37499,25.852257 z"
             sodipodi:ry="25.852255"
             sodipodi:rx="24.374983"
             sodipodi:cy="116.99267"
             sodipodi:cx="263.69299"
             id="path6203"
             style="fill:#ffffff;fill-opacity:1;stroke:#000000;stroke-width:8.94022179;stroke-linecap:round;stroke-linejoin:round;stroke-miterlimit:4;stroke-opacity:1;stroke-dasharray:none"
             sodipodi:type="arc" />
          <path
             sodipodi:nodetypes="csssc"
             id="path6186"
             d="m 350.69239,322.69499 c 0,20.63873 -19.89893,64.34734 -44.63172,64.34734 -24.73281,0 -44.80579,-16.75029 -44.80579,-37.38902 0,-20.63875 13.15755,-40.56038 37.84498,-41.98998 18.13361,-1.0501 51.08494,-9.36663 51.59253,15.03166 z"
             style="fill:#ffffff;fill-opacity:1;stroke:#000000;stroke-width:4;stroke-linecap:round;stroke-linejoin:round;stroke-miterlimit:4;stroke-opacity:1;stroke-dasharray:none"
             inkscape:connector-curvature="0" />
          <path
             sodipodi:type="arc"
             style="fill:#ffffff;fill-opacity:1;stroke:#000000;stroke-width:2.63529372;stroke-linecap:round;stroke-linejoin:round;stroke-miterlimit:4;stroke-opacity:1;stroke-dasharray:none"
             id="path6190"
             sodipodi:cx="263.69299"
             sodipodi:cy="116.99267"
             sodipodi:rx="24.374983"
             sodipodi:ry="25.852255"
             d="m 288.06798,116.99267 c 0,14.2778 -10.91306,25.85225 -24.37499,25.85225 -13.46193,0 -24.37498,-11.57445 -24.37498,-25.85225 0,-14.27781 10.91305,-25.852257 24.37498,-25.852257 13.46193,0 24.37499,11.574447 24.37499,25.852257 z"
             transform="matrix(1.4563375,0,0,1.5819761,-88.68997,166.72935)" />
          <path
             transform="matrix(0.9942038,0,0,1.1451222,29.726717,221.7339)"
             d="m 288.06798,116.99267 c 0,14.2778 -10.91306,25.85225 -24.37499,25.85225 -13.46193,0 -24.37498,-11.57445 -24.37498,-25.85225 0,-14.27781 10.91305,-25.852257 24.37498,-25.852257 13.46193,0 24.37499,11.574447 24.37499,25.852257 z"
             sodipodi:ry="25.852255"
             sodipodi:rx="24.374983"
             sodipodi:cy="116.99267"
             sodipodi:cx="263.69299"
             id="path6193"
             style="fill:#ffffff;fill-opacity:1;stroke:#000000;stroke-width:3.74883533;stroke-linecap:round;stroke-linejoin:round;stroke-miterlimit:4;stroke-opacity:1;stroke-dasharray:none"
             sodipodi:type="arc" />
          <path
             sodipodi:type="arc"
             style="fill:#ffffff;fill-opacity:1;stroke:#000000;stroke-width:8.94022179;stroke-linecap:round;stroke-linejoin:round;stroke-miterlimit:4;stroke-opacity:1;stroke-dasharray:none"
             id="path6195"
             sodipodi:cx="263.69299"
             sodipodi:cy="116.99267"
             sodipodi:rx="24.374983"
             sodipodi:ry="25.852255"
             d="m 288.06798,116.99267 c 0,14.2778 -10.91306,25.85225 -24.37499,25.85225 -13.46193,0 -24.37498,-11.57445 -24.37498,-25.85225 0,-14.27781 10.91305,-25.852257 24.37498,-25.852257 13.46193,0 24.37499,11.574447 24.37499,25.852257 z"
             transform="matrix(0.4331782,0,0,0.4621222,179.00388,299.85063)" />
          <path
             id="path2180"
             d="m 419.26009,257.70304 c -109.62516,4.38501 -278.44791,40.56131 -292.69919,49.33133 4.38501,16.44377 172.11152,9.86626 264.19666,-5.48126 17.54001,-3.28876 46.04256,-44.94632 28.50253,-43.85007 z"
             style="fill:#ffffff;fill-opacity:1;fill-rule:evenodd;stroke:#000000;stroke-width:4;stroke-linecap:round;stroke-linejoin:round;stroke-miterlimit:4;stroke-opacity:1;stroke-dasharray:none"
             inkscape:connector-curvature="0" />
          <path
             sodipodi:nodetypes="cscsc"
             id="path2182"
             d="m 521.2115,172.19541 c 68.58922,0 120.37727,-13.42902 121.52011,28.58587 1.11959,41.88421 -44.09067,200.88834 -122.61636,208.20448 -81.12263,7.67377 -140.32022,-42.7538 -140.32022,-111.81766 0,-69.06385 63.58261,-124.97269 141.41647,-124.97269 z"
             style="fill:#ffffff;fill-opacity:1;fill-rule:evenodd;stroke:#000000;stroke-width:4;stroke-linecap:round;stroke-linejoin:round;stroke-miterlimit:4;stroke-opacity:1;stroke-dasharray:none"
             inkscape:connector-curvature="0" />
          <path
             id="path2184"
             d="m 586.07104,186.92131 c 1.09624,18.63627 24.1175,2.1925 29.59878,-4.38501 6.5775,-7.67376 21.92502,-118.395159 7.67375,-110.721399 -17.54002,8.77002 -41.65757,73.448839 -37.27253,115.106409 z"
             style="fill:#ffffff;fill-opacity:1;fill-rule:evenodd;stroke:#000000;stroke-width:4;stroke-linecap:round;stroke-linejoin:round;stroke-miterlimit:4;stroke-opacity:1;stroke-dasharray:none"
             inkscape:connector-curvature="0" />
          <path
             sodipodi:nodetypes="cccc"
             id="path2186"
             d="m 467.51188,200.2602 c 38.17051,0 68.63279,32.11425 69.63727,65.42992 -47.97525,-11.50065 -101.40111,-21.07438 -139.62367,4.05705 6.9393,-53.55077 44.31554,-68.2107 69.9864,-69.48697 z"
             style="fill:#ffffff;fill-opacity:1;fill-rule:evenodd;stroke:#000000;stroke-width:4;stroke-linecap:round;stroke-linejoin:round;stroke-miterlimit:4;stroke-opacity:1;stroke-dasharray:none"
             inkscape:connector-curvature="0" />
          <path
             id="path2188"
             d="m 465.07531,355.62705 c 18.6363,0 32.88757,-13.15502 32.88757,-29.5988 0,-16.44377 -14.25127,-30.69504 -32.88757,-30.69504 -18.63628,0 -32.88756,14.25127 -32.88756,30.69504 0,16.44378 14.25128,29.5988 32.88756,29.5988 z"
             style="fill:#ffffff;fill-opacity:1;fill-rule:evenodd;stroke:#000000;stroke-width:4;stroke-linecap:round;stroke-linejoin:round;stroke-miterlimit:4;stroke-opacity:1;stroke-dasharray:none"
             inkscape:connector-curvature="0" />
          <path
             id="path2190"
             d="m 582.39095,302.55574 c 116.20269,19.73253 302.56547,20.82878 320.10549,14.25127 -1.09625,-18.63627 -179.78528,-49.33132 -280.64042,-54.81258 -18.6363,-1.09625 -58.10135,37.27256 -39.46507,40.56131 z"
             style="fill:#ffffff;fill-opacity:1;fill-rule:evenodd;stroke:#000000;stroke-width:4;stroke-linecap:round;stroke-linejoin:round;stroke-miterlimit:4;stroke-opacity:1;stroke-dasharray:none"
             inkscape:connector-curvature="0" />
          <path
             sodipodi:nodetypes="ccc"
             id="path2192"
             d="m 726.72544,82.800829 c -31.07191,-9.922174 -163.25733,-17.251416 -217.05781,-9.86627 6.57749,30.695051 159.60805,31.503901 217.05781,9.86627 z"
             style="fill:#ffffff;fill-opacity:1;fill-rule:evenodd;stroke:#000000;stroke-width:4;stroke-linecap:round;stroke-linejoin:round;stroke-miterlimit:4;stroke-opacity:1;stroke-dasharray:none"
             inkscape:connector-curvature="0" />
          <path
             style="fill:#ffffff;fill-opacity:1;fill-rule:evenodd;stroke:#000000;stroke-width:4;stroke-linecap:round;stroke-linejoin:round;stroke-miterlimit:4;stroke-opacity:1;stroke-dasharray:none"
             d="m 456.08668,338.07317 c 4.72199,0 8.33292,-3.33316 8.33292,-7.49962 0,-4.16645 -3.61093,-7.77738 -8.33292,-7.77738 -4.72198,0 -8.33291,3.61093 -8.33291,7.77738 0,4.16646 3.61093,7.49962 8.33291,7.49962 z"
             id="path5215"
             inkscape:connector-curvature="0" />
          <path
             transform="matrix(0.1346426,-0.0376727,0.04387364,0.1983703,530.51318,223.27956)"
             d="m 313.92023,138.04379 c 0,48.34057 -31.08566,87.52835 -69.43177,87.52835 -38.3461,0 -69.43177,-39.18778 -69.43177,-87.52835 0,-48.340566 31.08567,-87.52834 69.43177,-87.52834 38.34611,0 69.43177,39.187774 69.43177,87.52834 z"
             sodipodi:ry="87.528343"
             sodipodi:rx="69.43177"
             sodipodi:cy="138.04379"
             sodipodi:cx="244.48846"
             id="path6205"
             style="fill:#ffffff;fill-opacity:1;stroke:#000000;stroke-width:23.7515564;stroke-linecap:round;stroke-linejoin:round;stroke-miterlimit:4;stroke-opacity:1;stroke-dasharray:none"
             sodipodi:type="arc" />
          <path
             sodipodi:type="arc"
             style="fill:#ffffff;fill-opacity:1;stroke:#000000;stroke-width:33.65943909;stroke-linecap:round;stroke-linejoin:round;stroke-miterlimit:4;stroke-opacity:1;stroke-dasharray:none"
             id="path6207"
             sodipodi:cx="244.48846"
             sodipodi:cy="138.04379"
             sodipodi:rx="69.43177"
             sodipodi:ry="87.528343"
             d="m 313.92023,138.04379 c 0,48.34057 -31.08566,87.52835 -69.43177,87.52835 -38.3461,0 -69.43177,-39.18778 -69.43177,-87.52835 0,-48.340566 31.08567,-87.52834 69.43177,-87.52834 38.34611,0 69.43177,39.187774 69.43177,87.52834 z"
             transform="matrix(0.09693893,-0.02605443,0.0315878,0.1371928,565.80226,215.95807)" />
        </g>
      </g>
    </g>
  </g>
</svg>
